{
    "$schema": "https://schema.management.azure.com/schemas/2015-01-01/deploymentParameters.json#",
    "contentVersion": "1.0.0.0",
    "parameters": {
        "cdnProfileName": {
            "value": "sentia-wp-we-test-cdn"
        },
        "cdnSku": {
            "value": {
                "name": "Standard_Microsoft"
            }
        },
        "cdnProfileProperties": {
            "value": {}
        }
    }
}